Using COMTRADE bulk/regular downloads and loading data into R
…
Attention: when assigning the .csv file to file specify the path leading to the .csv file from the working directory. To find out what the working directory is run getwd(). In the example above the .csv file is situated in the 01-data-directory, which itself is in the working directory.

There are more efficient packages than the base package to load data in R. We can, for example, do the same using the more user friendly tools from the tidyverse package:

library(tidyverse)  # Setups
library(readr)      # Setups

ctData <- read_csv(file) 

Using read_csv() returns a tbl_df(), or tibble, object that allows you to explore all variables of the data frame without printing it all in the console. There is no need to use head(), tail(), str().

ctData  

## # A tibble: 24 x 35
##    Classification  Year Period `Period Desc.` `Aggregate Level`
##             <chr> <int>  <int>          <int>             <int>
##  1             H4  2014   2014           2014                 2
##  2             H4  2014   2014           2014                 2
##  3             H4  2014   2014           2014                 2
##  4             H4  2014   2014           2014                 2
##  5             H4  2015   2015           2015                 2
##  6             H4  2015   2015           2015                 2
##  7             H4  2015   2015           2015                 2
##  8             H4  2015   2015           2015                 2
##  9             H4  2014   2014           2014                 4
## 10             H4  2014   2014           2014                 4
## # ... with 14 more rows, and 30 more variables: `Is Leaf Code` <int>,
## #   `Trade Flow Code` <int>, `Trade Flow` <chr>, `Reporter Code` <int>,
## #   Reporter <chr>, `Reporter ISO` <chr>, `Partner Code` <int>,
## #   Partner <chr>, `Partner ISO` <chr>, `2nd Partner Code` <chr>, `2nd
## #   Partner` <chr>, `2nd Partner ISO` <chr>, `Customs Proc. Code` <chr>,
## #   Customs <chr>, `Mode of Transport Code` <chr>, `Mode of
## #   Transport` <chr>, `Commodity Code` <chr>, Commodity <chr>, `Qty Unit
## #   Code` <int>, `Qty Unit` <chr>, Qty <chr>, `Alt Qty Unit Code` <chr>,
## #   `Alt Qty Unit` <int>, `Alt Qty` <chr>, `Netweight (kg)` <int>, `Gross
…
## See spec(...) for full column specifications.

ctFranceData

## # A tibble: 465,137 x 22
##    Classification  Year Period `Period Desc.` `Aggregate Level`
##             <chr> <int>  <int>          <int>             <int>
##  1             H0  1994   1994           1994                 2
##  2             H0  1994   1994           1994                 2
##  3             H0  1994   1994           1994                 2
##  4             H0  1994   1994           1994                 2
##  5             H0  1994   1994           1994                 2
##  6             H0  1994   1994           1994                 2
##  7             H0  1994   1994           1994                 2
##  8             H0  1994   1994           1994                 2
##  9             H0  1994   1994           1994                 2
## 10             H0  1994   1994           1994                 2
## # ... with 465,127 more rows, and 17 more variables: `Is Leaf Code` <int>,
## #   `Trade Flow Code` <int>, `Trade Flow` <chr>, `Reporter Code` <int>,
## #   Reporter <chr>, `Reporter ISO` <chr>, `Partner Code` <int>,
## #   Partner <chr>, `Partner ISO` <chr>, `Commodity Code` <chr>,
## #   Commodity <chr>, `Qty Unit Code` <int>, `Qty Unit` <chr>, Qty <dbl>,
## #   `Netweight (kg)` <dbl>, `Trade Value (US$)` <dbl>, Flag <int>
…
install.packages("devtools") # Run if needed
devtools::install_github("EBukin/tradeAnalysis-pack")

library(tradeAnalysis)

And to read the file using the new readCTCSV() function:

ctData_2 <- readCTCSV(file)

Using tradeAnalysis the file is slightly lighter and loads faster. This is especially important when loaded files are 4 Gb or more in volume.

ctData_2

## # A tibble: 465,137 x 12
##    Classification  Year Period Trade.Flow.Code Reporter.Code Partner.Code
##             <chr> <int>  <chr>           <int>         <int>        <int>
##  1             H0  1994   1994               1           251            0
##  2             H0  1994   1994               2           251            0
##  3             H0  1994   1994               1           251            8
##  4             H0  1994   1994               1           251           12
##  5             H0  1994   1994               2           251           12
##  6             H0  1994   1994               1           251           20
##  7             H0  1994   1994               2           251           20
##  8             H0  1994   1994               1           251           32
##  9             H0  1994   1994               2           251           32
## 10             H0  1994   1994               1           251           36
## # ... with 465,127 more rows, and 6 more variables: Commodity.Code <chr>,
## #   Qty.Unit.Code <int>, Qty <dbl>, Netweight..kg. <dbl>,
## #   Trade.Value..US.. <dbl>, Flag <int>

Unzipping files using R

To load bulk CT data files into R directly from the .zip archive we need to use the tradeAnalysis package. In the tradeAnalysis library we use the function readCTZIP(). To learn more about the syntax of the readCTZIP()function run ?readCTZIP, to see the source code run readCTZIP, or select readCTZIP with the mouse and press F2.

ctData_3 <-
  readCTZIP(folder = "01-data-import/",
            file = "type-C_r-804_ps-2014_freq-A_px-HS_pub-20150317_fmt-csv_ex-20150609.zip")
ctData_3

## # A tibble: 193,015 x 12
##    Classification  Year Period Trade.Flow.Code Reporter.Code Partner.Code
##             <chr> <int>  <chr>           <int>         <int>        <int>
##  1             H4  2014   2014               1           804            0
##  2             H4  2014   2014               2           804            0
##  3             H4  2014   2014               2           804           31
##  4             H4  2014   2014               1           804           40
##  5             H4  2014   2014               2           804           51
##  6             H4  2014   2014               1           804           84
##  7             H4  2014   2014               1           804           90
##  8             H4  2014   2014               2           804          112
##  9             H4  2014   2014               1           804          124
## 10             H4  2014   2014               2           804          124
## # ... with 193,005 more rows, and 6 more variables: Commodity.Code <chr>,
## #   Qty.Unit.Code <int>, Qty <dbl>, Netweight..kg. <dbl>,
## #   Trade.Value..US.. <dbl>, Flag <int>
…
CT data availability and API commands for data download

In R it is possible to see all the data available in the COMTRADE bulk download data files. This is achieved by using the COMTRADE API interface (https://comtrade.un.org/data/doc/api/bulk/#DataRequests).

Firstly, we run the command “http://comtrade.un.org/api//refs/da/bulk?parameters” in the browser address bar. After a certain loading time due to the large volume of the data, we will be returned the JSON object with thousands of rows of text in the browser. This Object can be parsed in R into a data frame showing all data available in COMTRADE and all query commands needed to download each data file.

To load this object into R we can do the following, using the package jsonlite:

install.packages("jsonlite")

library(jsonlite)
availableCtData_1 <- jsonlite::fromJSON("http://comtrade.un.org/api/refs/da/bulk?parameters") %>% tbl_df()
availableCtData_1

## # A tibble: 51,262 x 10
##                                                                       name
##  *                                                                   <chr>
##  1 type-C_r-428_ps-2016_freq-A_px-BEC_pub-20170812_fmt-csv_ex-20170817.zip
##  2  type-C_r-428_ps-2016_freq-A_px-H0_pub-20170812_fmt-csv_ex-20170817.zip
##  3  type-C_r-428_ps-2016_freq-A_px-H1_pub-20170812_fmt-csv_ex-20170817.zip
##  4  type-C_r-428_ps-2016_freq-A_px-H2_pub-20170812_fmt-csv_ex-20170817.zip
##  5  type-C_r-428_ps-2016_freq-A_px-H3_pub-20170812_fmt-csv_ex-20170817.zip
##  6  type-C_r-428_ps-2016_freq-A_px-H4_pub-20170812_fmt-csv_ex-20170817.zip
##  7  type-C_r-428_ps-2016_freq-A_px-HS_pub-20170812_fmt-csv_ex-20170817.zip
##  8  type-C_r-428_ps-2016_freq-A_px-S1_pub-20170812_fmt-csv_ex-20170817.zip
##  9  type-C_r-428_ps-2016_freq-A_px-S2_pub-20170812_fmt-csv_ex-20170817.zip
## 10  type-C_r-428_ps-2016_freq-A_px-S3_pub-20170812_fmt-csv_ex-20170817.zip
## # ... with 51,252 more rows, and 9 more variables: r <chr>, px <chr>,
## #   ps <chr>, type <chr>, freq <chr>, publicationDate <chr>,
## #   extractDate <chr>, filesize <int>, downloadUri <chr>
…
