Main data manipulation commands in R
…
one reporter, one Partner, second commodity, Export (Import), years in the reverse order (2016, 2015, 2014)

one reporter, one Partner, second commodity, Import, years in the reverse order (2016, 2015, 2014)

one reporter, second Partner, one commodity, Export (Import), years in the reverse order (2016, 2015, 2014)

one reporter, second Partner, one commodity, Import, years in the reverse order (2016, 2015, 2014)

Solution

ctSubsetQuant %>% 
  arrange(Reporter.Code, Partner.Code, Commodity.Code, 
          desc(Trade.Flow.Code), desc(Year), desc(Year))
## # A tibble: 328 x 6
##     Year Trade.Flow.Code Reporter.Code Partner.Code Commodity.Code
##    <int>           <int>         <int>        <int>          <chr>
##  1  2014               1            20            0           1001
##  2  2014               1            20            0           1003
##  3  2015               2            40            0           1001
##  4  2014               2            40            0           1001
##  5  2015               1            40            0           1001
##  6  2014               1            40            0           1001
##  7  2015               2            40            0           1003
##  8  2014               2            40            0           1003
##  9  2015               1            40            0           1003
## 10  2014               1            40            0           1003
## # ... with 318 more rows, and 1 more variables: Netweight..kg. <dbl>
…
Finding all unique reporters and partners.

franceExpImpPartn <- 
  ctData %>% 
  filter(Reporter.Code == "251", 
         Commodity.Code == "1001") %>% 
  distinct(Trade.Flow.Code, Partner.Code)

Unique destinations of export, where from France does not import any wheat:

franceExpImpPartn %>% 
  filter(Trade.Flow.Code == 2, 
         !Partner.Code %in% 
           filter(franceExpImpPartn, Trade.Flow.Code == 1)$Partner.Code)
## # A tibble: 63 x 2
##    Trade.Flow.Code Partner.Code
##              <int>        <int>
##  1               2           92
##  2               2          112
##  3               2          116
##  4               2          120
##  5               2          132
##  6               2          178
##  7               2          180
##  8               2          191
##  9               2          192
## 10               2          196
## # ... with 53 more rows
…
